{
  "meta": {
    "limit": 10,
    "next": "/api/v5/appso/discount/?offset=10&limit=10&platform=web",
    "offset": 0,
    "previous": null,
    "total_count": 1616
  },
  "objects": [
    {
      "app": {
        "android_collection_id": null,
        "cover_image": {
          "id": 535717,
          "image": "https://media.ifanrusercontent.com/user_files/appsoimg/06/5f/065fd909d6895cf072d2b165bf45cff3e9b3114f-742320e680e9a803da9eeaa38c243b2d340024ef.jpg"
        },
        "download_link": [
          {
            "device": "iOS Universal",
            "link": "https://itunes.apple.com/cn/app/pyramid-age/id1240999687?mt=8&at=1001l9Jj",
            "platform": "ios",
            "price": "0.00",
            "region": "cn"
          }
        ],
        "icon": {
          "id": 535716,
          "image": "https://media.ifanrusercontent.com/user_files/appsoimg/c7/06/c706750a9d0b9bc6bafa38efce574305443ad796-5749b34201a599d13f3a71a1f28568de76ff6a68.jpg"
        },
        "id": 27736,
        "ios_collection_id": 25684,
        "name": "pyramid age",
        "tag": ["游戏", "旅游"]
      },
      "collection_id": 25684,
      "content": "（11.8 限免）一款虚拟现实应用，带你感受 4500 年前的金字塔。通过最逼真的可视化技术，参观金字塔时代最杰出的纪念碑、法老哈夫拉神庙等地点。\n\n",
      "created_at": 1541610295,
      "discount_info": [
        {
          "discounted_price": "0.00",
          "expired": false,
          "original_price": "25.00"
        }
      ],
      "id": 2786,
      "published_at": 1541610060,
      "updated_at": 1541610295
    },
    {
      "app": {
        "android_collection_id": null,
        "cover_image": {
          "id": 535710,
          "image": "https://media.ifanrusercontent.com/user_files/appsoimg/fe/e9/fee9afc3ae5db60fca077669cf72b34a73c3e449-c176bb1ac6b69ee22020325ba46da157f1c6a802.jpg"
        },
        "download_link": [
          {
            "device": "iOS Universal",
            "link": "https://itunes.apple.com/cn/app/earth-impact/id1264864985?mt=8",
            "platform": "ios",
            "price": "1.00",
            "region": "cn"
          }
        ],
        "icon": {
          "id": 535709,
          "image": "https://media.ifanrusercontent.com/user_files/appsoimg/e7/ec/e7ece3e36dac1063c5c8d28933deedacc2e08618-a89255cd260691a982deb3bea418ee975906f39c.jpg"
        },
        "id": 27735,
        "ios_collection_id": 25683,
        "name": "Earth Impact",
        "tag": ["游戏", "策略游戏", "益智解谜"]
      },
      "collection_id": 25683,
      "content": "（11.8 降价）在这款独特且视觉上非常出色的益智游戏中体验小行星的可怕力量。当你控制地球上生命中最大的威胁之一时，通过巧妙地操控，来最大限度降低对地球的伤害。\n\n",
      "created_at": 1541608733,
      "discount_info": [
        {
          "discounted_price": "1.00",
          "expired": false,
          "original_price": "3.00"
        }
      ],
      "id": 2785,
      "published_at": 1541608560,
      "updated_at": 1541608733
    },
    {
      "app": {
        "android_collection_id": null,
        "cover_image": {
          "id": 535704,
          "image": "https://media.ifanrusercontent.com/user_files/appsoimg/17/dc/17dcce765d79c64df95959af431070180649e4b1-b2a6a5d77c46601f100f04b27d5611d82123db9d.jpg"
        },
        "download_link": [
          {
            "device": "iOS Universal",
            "link": "https://itunes.apple.com/cn/app/forgotten-king/id1168657960?mt=8&at=1001l9Jj",
            "platform": "ios",
            "price": "0.00",
            "region": "cn"
          }
        ],
        "icon": {
          "id": 535703,
          "image": "https://media.ifanrusercontent.com/user_files/appsoimg/cb/19/cb1984232512b9d9c32e09b658b4ab088cd83735-740cc05b1593685f158567de23302389ca5ac373.jpg"
        },
        "id": 27734,
        "ios_collection_id": 25682,
        "name": "Forgotten King",
        "tag": ["游戏", "益智解谜", "冒险游戏", "娱乐"]
      },
      "collection_id": 25682,
      "content": "（11.8 降价）采用独特风格进行王国打造，化身为国王进行公正的管理，游戏还有不少创意关卡，从中能逐渐揭开整个故事。\n\n",
      "created_at": 1541608665,
      "discount_info": [
        {
          "discounted_price": "0.00",
          "expired": false,
          "original_price": "6.00"
        }
      ],
      "id": 2784,
      "published_at": 1541608440,
      "updated_at": 1541608665
    },
    {
      "app": {
        "android_collection_id": null,
        "cover_image": {
          "id": 535683,
          "image": "https://media.ifanrusercontent.com/user_files/appsoimg/a3/c0/a3c082eefda2fa2752005ed0c52ecc71e82d0025-c14b323bcf24a94c8811d6bdc36dbca0c2ed3cdd.jpg"
        },
        "download_link": [
          {
            "device": "iOS Universal",
            "link": "https://itunes.apple.com/cn/app/lei-man-cong-lin-tan-xian/id537931449?mt=8&uo=4",
            "platform": "ios",
            "price": "6.00",
            "region": "cn"
          }
        ],
        "icon": {
          "id": 535682,
          "image": "https://media.ifanrusercontent.com/user_files/appsoimg/2b/a9/2ba98e160e4bc54872d26dacf1c5a6282d63dc26-b28d53b72608baf96549ad8e5cdf0dbf868af04f.jpg"
        },
        "id": 6461,
        "ios_collection_id": 9351,
        "name": "雷曼：丛林探险",
        "tag": ["游戏", "动作游戏", "街机游戏", "娱乐"]
      },
      "collection_id": 9351,
      "content": "（11.7 降价）荣获多项大奖的《雷曼：丛林探险》和《雷曼：嘉年华》正在降价。一款冒险解谜小游戏，玩家需要操控雷曼穿过各种地形，收集一串串无处不在的闪光小虫。\n\n",
      "created_at": 1541606582,
      "discount_info": [
        {
          "discounted_price": "6.00",
          "expired": false,
          "original_price": "12.00"
        }
      ],
      "id": 2782,
      "published_at": 1541606280,
      "updated_at": 1541606582
    },
    {
      "app": {
        "android_collection_id": null,
        "cover_image": {
          "id": 535665,
          "image": "https://media.ifanrusercontent.com/user_files/appsoimg/27/95/279547ce2e9bdca099ea8869a7358733e1dac8f2-afdd2481ec69402da8a9abf88e64e5d42f39aa76.jpg"
        },
        "download_link": [
          {
            "device": "iOS Universal",
            "link": "https://itunes.apple.com/cn/app/mo-gong-fu/id1116460043?mt=8&at=1001l9Jj",
            "platform": "ios",
            "price": "0.00",
            "region": "cn"
          }
        ],
        "icon": {
          "id": 535664,
          "image": "https://media.ifanrusercontent.com/user_files/appsoimg/92/d9/92d9681e1f6c39fa3663d2b7cdb73f914617ff1e-0d33b07ddfd970d2d64353afb27fe9dfda91616c.jpg"
        },
        "id": 10053,
        "ios_collection_id": 11630,
        "name": "墨功夫",
        "tag": ["游戏", "动作游戏", "问答游戏", "娱乐"]
      },
      "collection_id": 11630,
      "content": "（11.7 限免）一款动作类游戏，你需要控制武士左右移动，在踢掉树干的同时要注意躲避头上的树枝。",
      "created_at": 1464830241,
      "discount_info": [
        {
          "discounted_price": "0.00",
          "expired": false,
          "original_price": "12.00"
        }
      ],
      "id": 654,
      "published_at": 1541604480,
      "updated_at": 1541604652
    },
    {
      "app": {
        "android_collection_id": 19605,
        "cover_image": {
          "id": 535659,
          "image": "https://media.ifanrusercontent.com/user_files/appsoimg/6d/04/6d040605f12ee5e78daf5c30178f4acd83eac377-d4da9ebfec75594c06876df04bb3cf6b0680e11d.jpg"
        },
        "download_link": [
          {
            "device": "Unknown",
            "link": "https://ifanrdownload.b0.upaiyun.com/app/apk/powerhover.appso-AQJVl0vxnM.apk",
            "platform": "android_ifanr",
            "price": "0.00",
            "region": "cn"
          },
          {
            "device": "iOS Universal",
            "link": "https://itunes.apple.com/cn/app/power-hover/id1034773723?app=music&at=1001l9Jj&l=en&mt=1",
            "platform": "ios",
            "price": "3.00",
            "region": "cn"
          },
          {
            "device": "Android",
            "link": "https://play.google.com/store/apps/details?id=com.oddrok.powerhover",
            "platform": "android_google",
            "price": "0.00",
            "region": "cn"
          }
        ],
        "icon": {
          "id": 535658,
          "image": "https://media.ifanrusercontent.com/user_files/appsoimg/02/3a/023a75cf65aad5d748650674f67c3490268737f7-af89daf34afc0c1e3f6a45ed3dc9bcd025c299fa.jpg"
        },
        "id": 9227,
        "ios_collection_id": 3292,
        "name": "Power Hover",
        "tag": ["游戏", "动作游戏", "街机游戏"]
      },
      "collection_id": 3292,
      "content": "（11.7 降价）一款旋转跑酷游戏。游戏中，你将踩着滑板穿梭于城市、沙漠、海底等不同场景中，感受来自未来世界的风景。有内购。",
      "created_at": 1460772378,
      "discount_info": [
        {
          "discounted_price": "3.00",
          "expired": false,
          "original_price": "28.00"
        }
      ],
      "id": 323,
      "published_at": 1541604360,
      "updated_at": 1541604528
    },
    {
      "app": {
        "android_collection_id": null,
        "cover_image": {
          "id": 535612,
          "image": "https://media.ifanrusercontent.com/user_files/appsoimg/ac/49/ac49d339a4cceebf22db0d1e760919616c5d94d7-ab0475b404d8bf91231b5cebc4cd45a356f3e275.jpg"
        },
        "download_link": [
          {
            "device": "iOS Universal",
            "link": "https://itunes.apple.com/cn/app/zhi-neng-xun-huan-nao-zhong/id906692291?mt=8&ign-mpt=uo%3D8",
            "platform": "ios",
            "price": "0.00",
            "region": "cn"
          }
        ],
        "icon": {
          "id": 535611,
          "image": "https://media.ifanrusercontent.com/user_files/appsoimg/0b/f1/0bf19a1916558cb9efdd33cea24ed6fcce127c6c-5fb9389011376c014d6564501633ed499d2233e7.jpg"
        },
        "id": 9113,
        "ios_collection_id": 1861,
        "name": "智能循环闹钟",
        "tag": ["健康健美", "工具"]
      },
      "collection_id": 1861,
      "content": "一款可以跟踪你睡眠质量的应用，会在你浅睡眠的阶段来唤醒你，让你醒来的时候没有感觉到那么累。",
      "created_at": 1460255062,
      "discount_info": [
        {
          "discounted_price": "0.00",
          "expired": false,
          "original_price": "6.00"
        }
      ],
      "id": 284,
      "published_at": 1541585640,
      "updated_at": 1541585685
    },
    {
      "app": {
        "android_collection_id": null,
        "cover_image": {
          "id": 535606,
          "image": "https://media.ifanrusercontent.com/user_files/appsoimg/20/0d/200df755aa92c98fb941290ed481fd9f268195b2-57ebf6ea60b0672a61b07de8ece2cc1cb39da3ad.jpg"
        },
        "download_link": [
          {
            "device": "iOS Universal",
            "link": "https://itunes.apple.com/cn/app/pixomatic-layer-based-photo-editor/id1080114119?mt=8&at=1001l9Jj",
            "platform": "ios",
            "price": "0.00",
            "region": "cn"
          }
        ],
        "icon": {
          "id": 535605,
          "image": "https://media.ifanrusercontent.com/user_files/appsoimg/e4/f1/e4f131090c10228da3d7ed58ac529d5fbf8c431c-dccdf96a28c12dd3814901464fc1102cec80693d.jpg"
        },
        "id": 20959,
        "ios_collection_id": 18290,
        "name": "Pixomatic",
        "tag": ["摄影与录像", "娱乐"]
      },
      "collection_id": 18290,
      "content": "一款照片编辑处理工具，和 photoshop 有些相似。曾在 122 个国家排名付费照片和视频应用第一名，可提供智能抠图、艺术滤镜、贴纸、双重曝光等功能。",
      "created_at": 1498785592,
      "discount_info": [
        {
          "discounted_price": "0.00",
          "expired": false,
          "original_price": "30.00"
        }
      ],
      "id": 1958,
      "published_at": 1541585580,
      "updated_at": 1541585648
    },
    {
      "app": {
        "android_collection_id": null,
        "cover_image": {
          "id": 535529,
          "image": "https://media.ifanrusercontent.com/user_files/appsoimg/f4/1a/f41a6e6b004dff3a739e3c4c81594834f2658ac8-c8078de5b32add87231b5bdd94b069d285fdfaa3.jpg"
        },
        "download_link": [
          {
            "device": "iOS Universal",
            "link": "https://itunes.apple.com/cn/app/reminders-widget/id1092737242?mt=8&uo=4",
            "platform": "ios",
            "price": "0.00",
            "region": "cn"
          }
        ],
        "icon": {
          "id": 535528,
          "image": "https://media.ifanrusercontent.com/user_files/appsoimg/5f/a3/5fa35f027d300c848055e2029de92e48630bd92c-1a4aca717fc9a2054d0a8196b810f560e0b39b23.jpg"
        },
        "id": 15685,
        "ios_collection_id": 10145,
        "name": "Reminders Widget",
        "tag": ["效率", "购物"]
      },
      "collection_id": 10145,
      "content": "一款通知中心待办插件。能调用 iOS 上的提醒事项和日历的提醒，自动添加。你也可以直接在通知中心上添加、查看、完成事项，简单快捷，没有多余的功能，适合轻量待办事项使用人群。",
      "created_at": 1502850070,
      "discount_info": [
        {
          "discounted_price": "0.00",
          "expired": false,
          "original_price": "12.00"
        }
      ],
      "id": 2068,
      "published_at": 1541548980,
      "updated_at": 1541549054
    },
    {
      "app": {
        "android_collection_id": null,
        "cover_image": {
          "id": 535410,
          "image": "https://media.ifanrusercontent.com/user_files/appsoimg/06/8e/068e0c9db9bd99cdcd68eaaf70e1a6f1107bbfbb-12794cac49ad8e700ec2f7dfae368db6ec5206d1.jpg"
        },
        "download_link": [
          {
            "device": "iPhone",
            "link": "https://itunes.apple.com/cn/app/id1363152302?mt=8",
            "platform": "ios",
            "price": "0.00",
            "region": "cn"
          }
        ],
        "icon": {
          "id": 535409,
          "image": "https://media.ifanrusercontent.com/user_files/appsoimg/e6/d0/e6d0c25ca7b7d2fbb6d453c27289a459a775c394-a66603191501c3b9766fda1e0d3e91a2b5091ce2.jpg"
        },
        "id": 27119,
        "ios_collection_id": 25056,
        "name": "PoPoem - 最纯粹的诗文创作平台",
        "tag": ["社交", "生活"]
      },
      "collection_id": 25056,
      "content": "写诗是个小众爱好，但是在 PoPem 这款写诗平台里，你可以遇到志同道合者。",
      "created_at": 1536056696,
      "discount_info": [
        {
          "discounted_price": "0.00",
          "expired": false,
          "original_price": "6.00"
        }
      ],
      "id": 2736,
      "published_at": 1541500800,
      "updated_at": 1541500823
    }
  ]
}
